{
  "domain": [
    {
      "id": 1,
      "name": "example.com",
      "status": "notAuthenticated",
      "createdAt": "2020-12-12T12:00:00",
      "lastCheck": "2020-12-12T12:00:00"
    },
    {
      "id": 2,
      "name": "another.com",
      "status": "notAuthenticated",
      "createdAt": "2020-12-12T12:00:00",
      "lastCheck": "2020-12-12T12:00:00"
    },
    {
      "id": 3,
      "name": "asdasd.com",
      "status": "authenticated",
      "createdAt": "2020-12-12T12:00:00",
      "lastCheck": "2020-12-12T12:00:00"
    },
    {
      "id": 4,
      "name": "example.com",
      "status": "notAuthenticated",
      "createdAt": "2020-12-12T12:00:00",
      "lastCheck": "2020-12-12T12:00:00"
    },
    {
      "id": 5,
      "name": "another.com",
      "status": "notAuthenticated",
      "createdAt": "2020-12-12T12:00:00",
      "lastCheck": "2020-12-12T12:00:00"
    }
  ],
  "read": [
    [
      {
        "id": 1,
        "name": "example.com",
        "dkim": {
          "value": "safeqwzruq235157632947632jksabjbévhas",
          "status": "error"
        },
        "spf": {
          "value": "eqwipoőuew3827532ü9bjkébsaipfsu9pő",
          "status": "success"
        },
        "createdAt": "2020-12-12T12:00:00",
        "lastCheckedAt": "2020-12-12T12:00:00"
      }
    ]
  ],
  "comments": [
    {
      "id": 1,
      "body": "some comment",
      "postId": 1
    }
  ],
  "profile": {
    "name": "typicode"
  }
}
